Num elements,Time: Linear,Time: Binary
1,3.21e-07,4.61e-07
2,2.43e-07,2.7e-07
4,2.17e-07,5.38e-07
8,2.2e-07,5.34e-07
16,2.57e-07,6.65e-07
32,3.75e-07,6.78e-07
64,6.08e-07,7.85e-07
128,1.043e-06,9.42e-07
256,1.959e-06,1.038e-06
512,3.826e-06,1.25e-06
1024,7.564e-06,1.277e-06
2048,1.5328e-05,1.34e-06
4096,2.9611e-05,1.454e-06
8192,5.9489e-05,1.548e-06
16384,0.000118685,1.657e-06
32768,0.000235782,2.904e-06
65536,0.000474668,2.027e-06
131072,0.00095646,3.475e-06
262144,0.000762058,9.56e-07
524288,0.00154871,1.129e-06
1048576,0.00305209,1.136e-06
2097152,0.00564136,1.159e-06
4194304,0.0112769,1.308e-06
8388608,0.0223658,1.563e-06
16777216,0.0449599,1.601e-06
33554432,0.0942906,2.634e-06
67108864,0.179672,2.306e-06
134217728,0.364342,2.706e-06
268435456,0.725061,3.878e-06
536870912,1.45128,3.525e-06
